-- Merging decision tree log ---
manifest
ADDED from E:\Papercrunch\M_PaperCrunch_Android\app\src\main\AndroidManifest.xml:2:1-110:12
	package
		ADDED from E:\Papercrunch\M_PaperCrunch_Android\app\src\main\AndroidManifest.xml:3:5-65
		INJECTED from E:\Papercrunch\M_PaperCrunch_Android\app\src\main\AndroidManifest.xml
		INJECTED from E:\Papercrunch\M_PaperCrunch_Android\app\src\main\AndroidManifest.xml
	android:versionName
		INJECTED from E:\Papercrunch\M_PaperCrunch_Android\app\src\main\AndroidManifest.xml
		INJECTED from E:\Papercrunch\M_PaperCrunch_Android\app\src\main\AndroidManifest.xml
	xmlns:android
		ADDED from E:\Papercrunch\M_PaperCrunch_Android\app\src\main\AndroidManifest.xml:2:11-69
	android:versionCode
		INJECTED from E:\Papercrunch\M_PaperCrunch_Android\app\src\main\AndroidManifest.xml
		INJECTED from E:\Papercrunch\M_PaperCrunch_Android\app\src\main\AndroidManifest.xml
uses-permission#android.permission.INTERNET
ADDED from E:\Papercrunch\M_PaperCrunch_Android\app\src\main\AndroidManifest.xml:4:5-67
MERGED from [com.google.firebase:firebase-analytics:9.4.0] E:\Papercrunch\M_PaperCrunch_Android\app\build\intermediates\exploded-aar\com.google.firebase\firebase-analytics\9.4.0\AndroidManifest.xml:21:5-67
MERGED from [com.google.firebase:firebase-analytics-impl:9.4.0] E:\Papercrunch\M_PaperCrunch_Android\app\build\intermediates\exploded-aar\com.google.firebase\firebase-analytics-impl\9.4.0\AndroidManifest.xml:21:5-67
MERGED from [com.google.firebase:firebase-iid:9.4.0] E:\Papercrunch\M_PaperCrunch_Android\app\build\intermediates\exploded-aar\com.google.firebase\firebase-iid\9.4.0\AndroidManifest.xml:21:5-67
	android:name
		ADDED from E:\Papercrunch\M_PaperCrunch_Android\app\src\main\AndroidManifest.xml:4:22-64
uses-permission#android.permission.CAMERA
ADDED from E:\Papercrunch\M_PaperCrunch_Android\app\src\main\AndroidManifest.xml:5:5-65
	android:name
		ADDED from E:\Papercrunch\M_PaperCrunch_Android\app\src\main\AndroidManifest.xml:5:22-62
uses-permission#android.permission.READ_EXTERNAL_STORAGE
ADDED from E:\Papercrunch\M_PaperCrunch_Android\app\src\main\AndroidManifest.xml:6:5-80
	android:name
		ADDED from E:\Papercrunch\M_PaperCrunch_Android\app\src\main\AndroidManifest.xml:6:22-77
uses-permission#android.permission.WRITE_EXTERNAL_STORAGE
ADDED from E:\Papercrunch\M_PaperCrunch_Android\app\src\main\AndroidManifest.xml:7:5-81
	android:name
		ADDED from E:\Papercrunch\M_PaperCrunch_Android\app\src\main\AndroidManifest.xml:7:22-78
uses-permission#android.permission.ACCESS_FINE_LOCATION
ADDED from E:\Papercrunch\M_PaperCrunch_Android\app\src\main\AndroidManifest.xml:8:5-79
	android:name
		ADDED from E:\Papercrunch\M_PaperCrunch_Android\app\src\main\AndroidManifest.xml:8:22-76
uses-permission#android.permission.ACCESS_COARSE_LOCATION
ADDED from E:\Papercrunch\M_PaperCrunch_Android\app\src\main\AndroidManifest.xml:9:5-81
	android:name
		ADDED from E:\Papercrunch\M_PaperCrunch_Android\app\src\main\AndroidManifest.xml:9:22-78
uses-permission#android.permission.READ_CONTACTS
ADDED from E:\Papercrunch\M_PaperCrunch_Android\app\src\main\AndroidManifest.xml:10:5-72
	android:name
		ADDED from E:\Papercrunch\M_PaperCrunch_Android\app\src\main\AndroidManifest.xml:10:22-69
uses-permission#android.permission.WRITE_CONTACTS
ADDED from E:\Papercrunch\M_PaperCrunch_Android\app\src\main\AndroidManifest.xml:11:5-73
	android:name
		ADDED from E:\Papercrunch\M_PaperCrunch_Android\app\src\main\AndroidManifest.xml:11:22-70
uses-permission#android.permission.SEND_SMS
ADDED from E:\Papercrunch\M_PaperCrunch_Android\app\src\main\AndroidManifest.xml:12:5-67
	android:name
		ADDED from E:\Papercrunch\M_PaperCrunch_Android\app\src\main\AndroidManifest.xml:12:22-64
uses-permission#android.permission.READ_PHONE_STATE
ADDED from E:\Papercrunch\M_PaperCrunch_Android\app\src\main\AndroidManifest.xml:13:5-75
	android:name
		ADDED from E:\Papercrunch\M_PaperCrunch_Android\app\src\main\AndroidManifest.xml:13:22-72
uses-permission#android.permission.READ_PROFILE
ADDED from E:\Papercrunch\M_PaperCrunch_Android\app\src\main\AndroidManifest.xml:14:5-71
	android:name
		ADDED from E:\Papercrunch\M_PaperCrunch_Android\app\src\main\AndroidManifest.xml:14:22-68
uses-permission#android.permission.ACCESS_NETWORK_STATE
ADDED from E:\Papercrunch\M_PaperCrunch_Android\app\src\main\AndroidManifest.xml:15:5-79
MERGED from [com.google.firebase:firebase-analytics:9.4.0] E:\Papercrunch\M_PaperCrunch_Android\app\build\intermediates\exploded-aar\com.google.firebase\firebase-analytics\9.4.0\AndroidManifest.xml:22:5-79
MERGED from [com.google.firebase:firebase-analytics-impl:9.4.0] E:\Papercrunch\M_PaperCrunch_Android\app\build\intermediates\exploded-aar\com.google.firebase\firebase-analytics-impl\9.4.0\AndroidManifest.xml:22:5-79
MERGED from [com.google.firebase:firebase-iid:9.4.0] E:\Papercrunch\M_PaperCrunch_Android\app\build\intermediates\exploded-aar\com.google.firebase\firebase-iid\9.4.0\AndroidManifest.xml:20:5-79
	android:name
		ADDED from E:\Papercrunch\M_PaperCrunch_Android\app\src\main\AndroidManifest.xml:15:22-76
uses-permission#android.permission.GET_ACCOUNTS
ADDED from E:\Papercrunch\M_PaperCrunch_Android\app\src\main\AndroidManifest.xml:16:5-71
	android:name
		ADDED from E:\Papercrunch\M_PaperCrunch_Android\app\src\main\AndroidManifest.xml:16:22-68
application
ADDED from E:\Papercrunch\M_PaperCrunch_Android\app\src\main\AndroidManifest.xml:22:5-109:19
MERGED from [com.android.support:design:24.2.1] E:\Papercrunch\M_PaperCrunch_Android\app\build\intermediates\exploded-aar\com.android.support\design\24.2.1\AndroidManifest.xml:22:5-20
MERGED from [com.android.volley:volley:1.0.0] E:\Papercrunch\M_PaperCrunch_Android\app\build\intermediates\exploded-aar\com.android.volley\volley\1.0.0\AndroidManifest.xml:9:5-20
MERGED from [com.facebook.android:facebook-android-sdk:4.18.0] E:\Papercrunch\M_PaperCrunch_Android\app\build\intermediates\exploded-aar\com.facebook.android\facebook-android-sdk\4.18.0\AndroidManifest.xml:28:5-38:19
MERGED from [com.android.support:appcompat-v7:25.0.0] E:\Papercrunch\M_PaperCrunch_Android\app\build\intermediates\exploded-aar\com.android.support\appcompat-v7\25.0.0\AndroidManifest.xml:25:5-20
MERGED from [com.android.support:animated-vector-drawable:25.0.0] E:\Papercrunch\M_PaperCrunch_Android\app\build\intermediates\exploded-aar\com.android.support\animated-vector-drawable\25.0.0\AndroidManifest.xml:22:5-20
MERGED from [com.android.support:support-vector-drawable:25.0.0] E:\Papercrunch\M_PaperCrunch_Android\app\build\intermediates\exploded-aar\com.android.support\support-vector-drawable\25.0.0\AndroidManifest.xml:23:5-20
MERGED from [com.android.support:cardview-v7:25.0.0] E:\Papercrunch\M_PaperCrunch_Android\app\build\intermediates\exploded-aar\com.android.support\cardview-v7\25.0.0\AndroidManifest.xml:22:5-20
MERGED from [com.android.support:customtabs:25.0.0] E:\Papercrunch\M_PaperCrunch_Android\app\build\intermediates\exploded-aar\com.android.support\customtabs\25.0.0\AndroidManifest.xml:22:5-20
MERGED from [com.google.firebase:firebase-core:9.4.0] E:\Papercrunch\M_PaperCrunch_Android\app\build\intermediates\exploded-aar\com.google.firebase\firebase-core\9.4.0\AndroidManifest.xml:5:5-20
MERGED from [com.google.firebase:firebase-analytics:9.4.0] E:\Papercrunch\M_PaperCrunch_Android\app\build\intermediates\exploded-aar\com.google.firebase\firebase-analytics\9.4.0\AndroidManifest.xml:26:5-41:19
MERGED from [com.google.firebase:firebase-analytics-impl:9.4.0] E:\Papercrunch\M_PaperCrunch_Android\app\build\intermediates\exploded-aar\com.google.firebase\firebase-analytics-impl\9.4.0\AndroidManifest.xml:26:5-41:19
MERGED from [com.google.firebase:firebase-messaging:9.4.0] E:\Papercrunch\M_PaperCrunch_Android\app\build\intermediates\exploded-aar\com.google.firebase\firebase-messaging\9.4.0\AndroidManifest.xml:20:5-32:19
MERGED from [com.google.firebase:firebase-iid:9.4.0] E:\Papercrunch\M_PaperCrunch_Android\app\build\intermediates\exploded-aar\com.google.firebase\firebase-iid\9.4.0\AndroidManifest.xml:30:5-59:19
MERGED from [com.google.firebase:firebase-common:9.4.0] E:\Papercrunch\M_PaperCrunch_Android\app\build\intermediates\exploded-aar\com.google.firebase\firebase-common\9.4.0\AndroidManifest.xml:5:5-12:19
MERGED from [com.google.android.gms:play-services-auth:9.4.0] E:\Papercrunch\M_PaperCrunch_Android\app\build\intermediates\exploded-aar\com.google.android.gms\play-services-auth\9.4.0\AndroidManifest.xml:20:5-32:19
MERGED from [com.google.android.gms:play-services-base:9.4.0] E:\Papercrunch\M_PaperCrunch_Android\app\build\intermediates\exploded-aar\com.google.android.gms\play-services-base\9.4.0\AndroidManifest.xml:19:5-23:19
MERGED from [com.google.android.gms:play-services-tasks:9.4.0] E:\Papercrunch\M_PaperCrunch_Android\app\build\intermediates\exploded-aar\com.google.android.gms\play-services-tasks\9.4.0\AndroidManifest.xml:5:5-20
MERGED from [com.google.android.gms:play-services-basement:9.4.0] E:\Papercrunch\M_PaperCrunch_Android\app\build\intermediates\exploded-aar\com.google.android.gms\play-services-basement\9.4.0\AndroidManifest.xml:20:5-24:19
MERGED from [com.android.support:support-v4:25.0.0] E:\Papercrunch\M_PaperCrunch_Android\app\build\intermediates\exploded-aar\com.android.support\support-v4\25.0.0\AndroidManifest.xml:25:5-20
MERGED from [com.android.support:support-fragment:25.0.0] E:\Papercrunch\M_PaperCrunch_Android\app\build\intermediates\exploded-aar\com.android.support\support-fragment\25.0.0\AndroidManifest.xml:25:5-20
MERGED from [com.android.support:support-media-compat:25.0.0] E:\Papercrunch\M_PaperCrunch_Android\app\build\intermediates\exploded-aar\com.android.support\support-media-compat\25.0.0\AndroidManifest.xml:25:5-20
MERGED from [com.android.support:support-core-ui:25.0.0] E:\Papercrunch\M_PaperCrunch_Android\app\build\intermediates\exploded-aar\com.android.support\support-core-ui\25.0.0\AndroidManifest.xml:25:5-20
MERGED from [com.android.support:support-core-utils:25.0.0] E:\Papercrunch\M_PaperCrunch_Android\app\build\intermediates\exploded-aar\com.android.support\support-core-utils\25.0.0\AndroidManifest.xml:25:5-20
MERGED from [com.android.support:support-compat:25.0.0] E:\Papercrunch\M_PaperCrunch_Android\app\build\intermediates\exploded-aar\com.android.support\support-compat\25.0.0\AndroidManifest.xml:25:5-20
	android:label
		ADDED from E:\Papercrunch\M_PaperCrunch_Android\app\src\main\AndroidManifest.xml:26:9-41
	android:supportsRtl
		ADDED from E:\Papercrunch\M_PaperCrunch_Android\app\src\main\AndroidManifest.xml:27:9-35
	android:allowBackup
		ADDED from E:\Papercrunch\M_PaperCrunch_Android\app\src\main\AndroidManifest.xml:24:9-35
	android:icon
		ADDED from E:\Papercrunch\M_PaperCrunch_Android\app\src\main\AndroidManifest.xml:25:9-43
	android:theme
		ADDED from E:\Papercrunch\M_PaperCrunch_Android\app\src\main\AndroidManifest.xml:28:9-40
	android:name
		ADDED from E:\Papercrunch\M_PaperCrunch_Android\app\src\main\AndroidManifest.xml:23:9-38
meta-data#com.facebook.sdk.ApplicationId
ADDED from E:\Papercrunch\M_PaperCrunch_Android\app\src\main\AndroidManifest.xml:29:9-31:46
	android:value
		ADDED from E:\Papercrunch\M_PaperCrunch_Android\app\src\main\AndroidManifest.xml:31:13-43
	android:name
		ADDED from E:\Papercrunch\M_PaperCrunch_Android\app\src\main\AndroidManifest.xml:30:13-58
activity#core.papercrunch_helixtech.com.papercrunch_android.Splashscreen
ADDED from E:\Papercrunch\M_PaperCrunch_Android\app\src\main\AndroidManifest.xml:33:9-43:20
	android:screenOrientation
		ADDED from E:\Papercrunch\M_PaperCrunch_Android\app\src\main\AndroidManifest.xml:36:13-49
	android:label
		ADDED from E:\Papercrunch\M_PaperCrunch_Android\app\src\main\AndroidManifest.xml:35:13-45
	android:theme
		ADDED from E:\Papercrunch\M_PaperCrunch_Android\app\src\main\AndroidManifest.xml:37:13-56
	android:name
		ADDED from E:\Papercrunch\M_PaperCrunch_Android\app\src\main\AndroidManifest.xml:34:13-41
intent-filter#android.intent.action.MAIN+android.intent.category.LAUNCHER
ADDED from E:\Papercrunch\M_PaperCrunch_Android\app\src\main\AndroidManifest.xml:38:13-42:29
action#android.intent.action.MAIN
ADDED from E:\Papercrunch\M_PaperCrunch_Android\app\src\main\AndroidManifest.xml:39:17-69
	android:name
		ADDED from E:\Papercrunch\M_PaperCrunch_Android\app\src\main\AndroidManifest.xml:39:25-66
category#android.intent.category.LAUNCHER
ADDED from E:\Papercrunch\M_PaperCrunch_Android\app\src\main\AndroidManifest.xml:41:17-77
	android:name
		ADDED from E:\Papercrunch\M_PaperCrunch_Android\app\src\main\AndroidManifest.xml:41:27-74
activity#core.papercrunch_helixtech.com.papercrunch_android.WelcomeActivity
ADDED from E:\Papercrunch\M_PaperCrunch_Android\app\src\main\AndroidManifest.xml:44:9-48:59
	android:screenOrientation
		ADDED from E:\Papercrunch\M_PaperCrunch_Android\app\src\main\AndroidManifest.xml:47:13-49
	android:label
		ADDED from E:\Papercrunch\M_PaperCrunch_Android\app\src\main\AndroidManifest.xml:46:13-45
	android:theme
		ADDED from E:\Papercrunch\M_PaperCrunch_Android\app\src\main\AndroidManifest.xml:48:13-56
	android:name
		ADDED from E:\Papercrunch\M_PaperCrunch_Android\app\src\main\AndroidManifest.xml:45:13-44
activity#core.papercrunch_helixtech.com.papercrunch_android.LoginActivity
ADDED from E:\Papercrunch\M_PaperCrunch_Android\app\src\main\AndroidManifest.xml:49:9-53:59
	android:screenOrientation
		ADDED from E:\Papercrunch\M_PaperCrunch_Android\app\src\main\AndroidManifest.xml:52:13-49
	android:label
		ADDED from E:\Papercrunch\M_PaperCrunch_Android\app\src\main\AndroidManifest.xml:51:13-45
	android:theme
		ADDED from E:\Papercrunch\M_PaperCrunch_Android\app\src\main\AndroidManifest.xml:53:13-56
	android:name
		ADDED from E:\Papercrunch\M_PaperCrunch_Android\app\src\main\AndroidManifest.xml:50:13-42
activity#core.papercrunch_helixtech.com.papercrunch_android.MainActivity
ADDED from E:\Papercrunch\M_PaperCrunch_Android\app\src\main\AndroidManifest.xml:54:9-63:20
	android:screenOrientation
		ADDED from E:\Papercrunch\M_PaperCrunch_Android\app\src\main\AndroidManifest.xml:57:13-49
	android:label
		ADDED from E:\Papercrunch\M_PaperCrunch_Android\app\src\main\AndroidManifest.xml:56:13-45
	android:theme
		ADDED from E:\Papercrunch\M_PaperCrunch_Android\app\src\main\AndroidManifest.xml:58:13-56
	android:name
		ADDED from E:\Papercrunch\M_PaperCrunch_Android\app\src\main\AndroidManifest.xml:55:13-41
activity#core.papercrunch_helixtech.com.papercrunch_android.Signup_activity
ADDED from E:\Papercrunch\M_PaperCrunch_Android\app\src\main\AndroidManifest.xml:64:9-68:59
	android:screenOrientation
		ADDED from E:\Papercrunch\M_PaperCrunch_Android\app\src\main\AndroidManifest.xml:67:13-49
	android:label
		ADDED from E:\Papercrunch\M_PaperCrunch_Android\app\src\main\AndroidManifest.xml:66:13-45
	android:theme
		ADDED from E:\Papercrunch\M_PaperCrunch_Android\app\src\main\AndroidManifest.xml:68:13-56
	android:name
		ADDED from E:\Papercrunch\M_PaperCrunch_Android\app\src\main\AndroidManifest.xml:65:13-44
activity#core.papercrunch_helixtech.com.papercrunch_android.Signin_or_Signup
ADDED from E:\Papercrunch\M_PaperCrunch_Android\app\src\main\AndroidManifest.xml:69:9-73:59
	android:screenOrientation
		ADDED from E:\Papercrunch\M_PaperCrunch_Android\app\src\main\AndroidManifest.xml:72:13-49
	android:label
		ADDED from E:\Papercrunch\M_PaperCrunch_Android\app\src\main\AndroidManifest.xml:71:13-45
	android:theme
		ADDED from E:\Papercrunch\M_PaperCrunch_Android\app\src\main\AndroidManifest.xml:73:13-56
	android:name
		ADDED from E:\Papercrunch\M_PaperCrunch_Android\app\src\main\AndroidManifest.xml:70:13-45
activity#core.papercrunch_helixtech.com.papercrunch_android.Login_options
ADDED from E:\Papercrunch\M_PaperCrunch_Android\app\src\main\AndroidManifest.xml:74:9-78:59
	android:screenOrientation
		ADDED from E:\Papercrunch\M_PaperCrunch_Android\app\src\main\AndroidManifest.xml:77:13-49
	android:label
		ADDED from E:\Papercrunch\M_PaperCrunch_Android\app\src\main\AndroidManifest.xml:76:13-45
	android:theme
		ADDED from E:\Papercrunch\M_PaperCrunch_Android\app\src\main\AndroidManifest.xml:78:13-56
	android:name
		ADDED from E:\Papercrunch\M_PaperCrunch_Android\app\src\main\AndroidManifest.xml:75:13-42
activity#core.papercrunch_helixtech.com.papercrunch_android.SignUp_SecondScreen
ADDED from E:\Papercrunch\M_PaperCrunch_Android\app\src\main\AndroidManifest.xml:79:9-83:59
	android:screenOrientation
		ADDED from E:\Papercrunch\M_PaperCrunch_Android\app\src\main\AndroidManifest.xml:82:13-49
	android:label
		ADDED from E:\Papercrunch\M_PaperCrunch_Android\app\src\main\AndroidManifest.xml:81:13-45
	android:theme
		ADDED from E:\Papercrunch\M_PaperCrunch_Android\app\src\main\AndroidManifest.xml:83:13-56
	android:name
		ADDED from E:\Papercrunch\M_PaperCrunch_Android\app\src\main\AndroidManifest.xml:80:13-48
activity#core.papercrunch_helixtech.com.papercrunch_android.PDFRenderFragment
ADDED from E:\Papercrunch\M_PaperCrunch_Android\app\src\main\AndroidManifest.xml:84:9-88:59
	android:screenOrientation
		ADDED from E:\Papercrunch\M_PaperCrunch_Android\app\src\main\AndroidManifest.xml:87:13-49
	android:label
		ADDED from E:\Papercrunch\M_PaperCrunch_Android\app\src\main\AndroidManifest.xml:86:13-45
	android:theme
		ADDED from E:\Papercrunch\M_PaperCrunch_Android\app\src\main\AndroidManifest.xml:88:13-56
	android:name
		ADDED from E:\Papercrunch\M_PaperCrunch_Android\app\src\main\AndroidManifest.xml:85:13-46
activity#core.papercrunch_helixtech.com.papercrunch_android.ChatWindowActivity
ADDED from E:\Papercrunch\M_PaperCrunch_Android\app\src\main\AndroidManifest.xml:89:9-93:15
	android:screenOrientation
		ADDED from E:\Papercrunch\M_PaperCrunch_Android\app\src\main\AndroidManifest.xml:91:13-49
	android:label
		ADDED from E:\Papercrunch\M_PaperCrunch_Android\app\src\main\AndroidManifest.xml:90:13-45
	android:theme
		ADDED from E:\Papercrunch\M_PaperCrunch_Android\app\src\main\AndroidManifest.xml:92:13-56
	android:name
		ADDED from E:\Papercrunch\M_PaperCrunch_Android\app\src\main\AndroidManifest.xml:89:19-53
service#core.papercrunch_helixtech.com.papercrunch_android.MyFirebaseInstanceIDService
ADDED from E:\Papercrunch\M_PaperCrunch_Android\app\src\main\AndroidManifest.xml:96:9-100:19
	android:name
		ADDED from E:\Papercrunch\M_PaperCrunch_Android\app\src\main\AndroidManifest.xml:96:18-61
intent-filter#com.google.firebase.INSTANCE_ID_EVENT
ADDED from E:\Papercrunch\M_PaperCrunch_Android\app\src\main\AndroidManifest.xml:97:13-99:29
action#com.google.firebase.INSTANCE_ID_EVENT
ADDED from E:\Papercrunch\M_PaperCrunch_Android\app\src\main\AndroidManifest.xml:98:17-80
	android:name
		ADDED from E:\Papercrunch\M_PaperCrunch_Android\app\src\main\AndroidManifest.xml:98:25-77
service#core.papercrunch_helixtech.com.papercrunch_android.MyFcmListenerService
ADDED from E:\Papercrunch\M_PaperCrunch_Android\app\src\main\AndroidManifest.xml:102:9-108:19
	android:exported
		ADDED from E:\Papercrunch\M_PaperCrunch_Android\app\src\main\AndroidManifest.xml:104:13-37
	android:name
		ADDED from E:\Papercrunch\M_PaperCrunch_Android\app\src\main\AndroidManifest.xml:103:13-49
intent-filter#com.google.firebase.MESSAGING_EVENT
ADDED from E:\Papercrunch\M_PaperCrunch_Android\app\src\main\AndroidManifest.xml:105:13-107:29
action#com.google.firebase.MESSAGING_EVENT
ADDED from E:\Papercrunch\M_PaperCrunch_Android\app\src\main\AndroidManifest.xml:106:17-77
	android:name
		ADDED from E:\Papercrunch\M_PaperCrunch_Android\app\src\main\AndroidManifest.xml:106:25-75
uses-sdk
INJECTED from E:\Papercrunch\M_PaperCrunch_Android\app\src\main\AndroidManifest.xml reason: use-sdk injection requested
MERGED from [com.android.support:multidex:1.0.1] E:\Papercrunch\M_PaperCrunch_Android\app\build\intermediates\exploded-aar\com.android.support\multidex\1.0.1\AndroidManifest.xml:18:5-42
MERGED from [com.android.support:design:24.2.1] E:\Papercrunch\M_PaperCrunch_Android\app\build\intermediates\exploded-aar\com.android.support\design\24.2.1\AndroidManifest.xml:20:5-43
MERGED from [com.android.support:recyclerview-v7:24.2.1] E:\Papercrunch\M_PaperCrunch_Android\app\build\intermediates\exploded-aar\com.android.support\recyclerview-v7\24.2.1\AndroidManifest.xml:20:5-43
MERGED from [com.android.volley:volley:1.0.0] E:\Papercrunch\M_PaperCrunch_Android\app\build\intermediates\exploded-aar\com.android.volley\volley\1.0.0\AndroidManifest.xml:7:5-43
MERGED from [com.facebook.android:facebook-android-sdk:4.18.0] E:\Papercrunch\M_PaperCrunch_Android\app\build\intermediates\exploded-aar\com.facebook.android\facebook-android-sdk\4.18.0\AndroidManifest.xml:24:5-26:41
MERGED from [com.android.support:appcompat-v7:25.0.0] E:\Papercrunch\M_PaperCrunch_Android\app\build\intermediates\exploded-aar\com.android.support\appcompat-v7\25.0.0\AndroidManifest.xml:21:5-23:78
MERGED from [com.android.support:animated-vector-drawable:25.0.0] E:\Papercrunch\M_PaperCrunch_Android\app\build\intermediates\exploded-aar\com.android.support\animated-vector-drawable\25.0.0\AndroidManifest.xml:20:5-44
MERGED from [com.android.support:support-vector-drawable:25.0.0] E:\Papercrunch\M_PaperCrunch_Android\app\build\intermediates\exploded-aar\com.android.support\support-vector-drawable\25.0.0\AndroidManifest.xml:21:5-43
MERGED from [com.android.support:cardview-v7:25.0.0] E:\Papercrunch\M_PaperCrunch_Android\app\build\intermediates\exploded-aar\com.android.support\cardview-v7\25.0.0\AndroidManifest.xml:20:5-43
MERGED from [com.android.support:customtabs:25.0.0] E:\Papercrunch\M_PaperCrunch_Android\app\build\intermediates\exploded-aar\com.android.support\customtabs\25.0.0\AndroidManifest.xml:20:5-44
MERGED from [com.google.firebase:firebase-core:9.4.0] E:\Papercrunch\M_PaperCrunch_Android\app\build\intermediates\exploded-aar\com.google.firebase\firebase-core\9.4.0\AndroidManifest.xml:4:5-42
MERGED from [com.google.firebase:firebase-analytics:9.4.0] E:\Papercrunch\M_PaperCrunch_Android\app\build\intermediates\exploded-aar\com.google.firebase\firebase-analytics\9.4.0\AndroidManifest.xml:18:5-42
MERGED from [com.google.firebase:firebase-analytics-impl:9.4.0] E:\Papercrunch\M_PaperCrunch_Android\app\build\intermediates\exploded-aar\com.google.firebase\firebase-analytics-impl\9.4.0\AndroidManifest.xml:18:5-42
MERGED from [com.google.firebase:firebase-messaging:9.4.0] E:\Papercrunch\M_PaperCrunch_Android\app\build\intermediates\exploded-aar\com.google.firebase\firebase-messaging\9.4.0\AndroidManifest.xml:18:5-42
MERGED from [com.google.firebase:firebase-iid:9.4.0] E:\Papercrunch\M_PaperCrunch_Android\app\build\intermediates\exploded-aar\com.google.firebase\firebase-iid\9.4.0\AndroidManifest.xml:18:5-42
MERGED from [com.google.firebase:firebase-common:9.4.0] E:\Papercrunch\M_PaperCrunch_Android\app\build\intermediates\exploded-aar\com.google.firebase\firebase-common\9.4.0\AndroidManifest.xml:4:5-43
MERGED from [com.google.android.gms:play-services-auth:9.4.0] E:\Papercrunch\M_PaperCrunch_Android\app\build\intermediates\exploded-aar\com.google.android.gms\play-services-auth\9.4.0\AndroidManifest.xml:18:5-43
MERGED from [com.google.android.gms:play-services-auth-base:9.4.0] E:\Papercrunch\M_PaperCrunch_Android\app\build\intermediates\exploded-aar\com.google.android.gms\play-services-auth-base\9.4.0\AndroidManifest.xml:5:5-43
MERGED from [com.google.android.gms:play-services-base:9.4.0] E:\Papercrunch\M_PaperCrunch_Android\app\build\intermediates\exploded-aar\com.google.android.gms\play-services-base\9.4.0\AndroidManifest.xml:18:5-42
MERGED from [com.google.android.gms:play-services-tasks:9.4.0] E:\Papercrunch\M_PaperCrunch_Android\app\build\intermediates\exploded-aar\com.google.android.gms\play-services-tasks\9.4.0\AndroidManifest.xml:4:5-43
MERGED from [com.google.android.gms:play-services-basement:9.4.0] E:\Papercrunch\M_PaperCrunch_Android\app\build\intermediates\exploded-aar\com.google.android.gms\play-services-basement\9.4.0\AndroidManifest.xml:18:5-42
MERGED from [com.android.support:support-v4:25.0.0] E:\Papercrunch\M_PaperCrunch_Android\app\build\intermediates\exploded-aar\com.android.support\support-v4\25.0.0\AndroidManifest.xml:21:5-23:54
MERGED from [com.android.support:support-fragment:25.0.0] E:\Papercrunch\M_PaperCrunch_Android\app\build\intermediates\exploded-aar\com.android.support\support-fragment\25.0.0\AndroidManifest.xml:21:5-23:60
MERGED from [com.android.support:support-media-compat:25.0.0] E:\Papercrunch\M_PaperCrunch_Android\app\build\intermediates\exploded-aar\com.android.support\support-media-compat\25.0.0\AndroidManifest.xml:21:5-23:63
MERGED from [com.android.support:support-core-ui:25.0.0] E:\Papercrunch\M_PaperCrunch_Android\app\build\intermediates\exploded-aar\com.android.support\support-core-ui\25.0.0\AndroidManifest.xml:21:5-23:58
MERGED from [com.android.support:support-core-utils:25.0.0] E:\Papercrunch\M_PaperCrunch_Android\app\build\intermediates\exploded-aar\com.android.support\support-core-utils\25.0.0\AndroidManifest.xml:21:5-23:61
MERGED from [com.android.support:support-compat:25.0.0] E:\Papercrunch\M_PaperCrunch_Android\app\build\intermediates\exploded-aar\com.android.support\support-compat\25.0.0\AndroidManifest.xml:21:5-23:58
	tools:overrideLibrary
		ADDED from [com.android.support:appcompat-v7:25.0.0] E:\Papercrunch\M_PaperCrunch_Android\app\build\intermediates\exploded-aar\com.android.support\appcompat-v7\25.0.0\AndroidManifest.xml:23:9-75
	android:targetSdkVersion
		INJECTED from E:\Papercrunch\M_PaperCrunch_Android\app\src\main\AndroidManifest.xml
		INJECTED from E:\Papercrunch\M_PaperCrunch_Android\app\src\main\AndroidManifest.xml
	android:minSdkVersion
		INJECTED from E:\Papercrunch\M_PaperCrunch_Android\app\src\main\AndroidManifest.xml
		INJECTED from E:\Papercrunch\M_PaperCrunch_Android\app\src\main\AndroidManifest.xml
activity#com.facebook.FacebookActivity
ADDED from [com.facebook.android:facebook-android-sdk:4.18.0] E:\Papercrunch\M_PaperCrunch_Android\app\build\intermediates\exploded-aar\com.facebook.android\facebook-android-sdk\4.18.0\AndroidManifest.xml:29:9-32:66
	android:configChanges
		ADDED from [com.facebook.android:facebook-android-sdk:4.18.0] E:\Papercrunch\M_PaperCrunch_Android\app\build\intermediates\exploded-aar\com.facebook.android\facebook-android-sdk\4.18.0\AndroidManifest.xml:31:13-96
	android:theme
		ADDED from [com.facebook.android:facebook-android-sdk:4.18.0] E:\Papercrunch\M_PaperCrunch_Android\app\build\intermediates\exploded-aar\com.facebook.android\facebook-android-sdk\4.18.0\AndroidManifest.xml:32:13-63
	android:name
		ADDED from [com.facebook.android:facebook-android-sdk:4.18.0] E:\Papercrunch\M_PaperCrunch_Android\app\build\intermediates\exploded-aar\com.facebook.android\facebook-android-sdk\4.18.0\AndroidManifest.xml:30:13-57
activity#com.facebook.CustomTabActivity
ADDED from [com.facebook.android:facebook-android-sdk:4.18.0] E:\Papercrunch\M_PaperCrunch_Android\app\build\intermediates\exploded-aar\com.facebook.android\facebook-android-sdk\4.18.0\AndroidManifest.xml:33:9-36:20
	android:exported
		ADDED from [com.facebook.android:facebook-android-sdk:4.18.0] E:\Papercrunch\M_PaperCrunch_Android\app\build\intermediates\exploded-aar\com.facebook.android\facebook-android-sdk\4.18.0\AndroidManifest.xml:35:13-36
	android:name
		ADDED from [com.facebook.android:facebook-android-sdk:4.18.0] E:\Papercrunch\M_PaperCrunch_Android\app\build\intermediates\exploded-aar\com.facebook.android\facebook-android-sdk\4.18.0\AndroidManifest.xml:34:13-58
activity#com.facebook.CustomTabMainActivity
ADDED from [com.facebook.android:facebook-android-sdk:4.18.0] E:\Papercrunch\M_PaperCrunch_Android\app\build\intermediates\exploded-aar\com.facebook.android\facebook-android-sdk\4.18.0\AndroidManifest.xml:37:9-71
	android:name
		ADDED from [com.facebook.android:facebook-android-sdk:4.18.0] E:\Papercrunch\M_PaperCrunch_Android\app\build\intermediates\exploded-aar\com.facebook.android\facebook-android-sdk\4.18.0\AndroidManifest.xml:37:19-68
uses-permission#android.permission.WAKE_LOCK
ADDED from [com.google.firebase:firebase-analytics:9.4.0] E:\Papercrunch\M_PaperCrunch_Android\app\build\intermediates\exploded-aar\com.google.firebase\firebase-analytics\9.4.0\AndroidManifest.xml:24:5-67
MERGED from [com.google.firebase:firebase-analytics-impl:9.4.0] E:\Papercrunch\M_PaperCrunch_Android\app\build\intermediates\exploded-aar\com.google.firebase\firebase-analytics-impl\9.4.0\AndroidManifest.xml:24:5-67
MERGED from [com.google.firebase:firebase-iid:9.4.0] E:\Papercrunch\M_PaperCrunch_Android\app\build\intermediates\exploded-aar\com.google.firebase\firebase-iid\9.4.0\AndroidManifest.xml:22:5-68
	android:name
		ADDED from [com.google.firebase:firebase-analytics:9.4.0] E:\Papercrunch\M_PaperCrunch_Android\app\build\intermediates\exploded-aar\com.google.firebase\firebase-analytics\9.4.0\AndroidManifest.xml:24:22-65
receiver#com.google.android.gms.measurement.AppMeasurementReceiver
ADDED from [com.google.firebase:firebase-analytics:9.4.0] E:\Papercrunch\M_PaperCrunch_Android\app\build\intermediates\exploded-aar\com.google.firebase\firebase-analytics\9.4.0\AndroidManifest.xml:28:7-34:18
MERGED from [com.google.firebase:firebase-analytics-impl:9.4.0] E:\Papercrunch\M_PaperCrunch_Android\app\build\intermediates\exploded-aar\com.google.firebase\firebase-analytics-impl\9.4.0\AndroidManifest.xml:28:7-34:18
	android:enabled
		ADDED from [com.google.firebase:firebase-analytics:9.4.0] E:\Papercrunch\M_PaperCrunch_Android\app\build\intermediates\exploded-aar\com.google.firebase\firebase-analytics\9.4.0\AndroidManifest.xml:30:11-33
	android:name
		ADDED from [com.google.firebase:firebase-analytics:9.4.0] E:\Papercrunch\M_PaperCrunch_Android\app\build\intermediates\exploded-aar\com.google.firebase\firebase-analytics\9.4.0\AndroidManifest.xml:29:11-83
intent-filter#com.google.android.gms.measurement.UPLOAD
ADDED from [com.google.firebase:firebase-analytics:9.4.0] E:\Papercrunch\M_PaperCrunch_Android\app\build\intermediates\exploded-aar\com.google.firebase\firebase-analytics\9.4.0\AndroidManifest.xml:31:9-33:25
action#com.google.android.gms.measurement.UPLOAD
ADDED from [com.google.firebase:firebase-analytics:9.4.0] E:\Papercrunch\M_PaperCrunch_Android\app\build\intermediates\exploded-aar\com.google.firebase\firebase-analytics\9.4.0\AndroidManifest.xml:32:11-77
	android:name
		ADDED from [com.google.firebase:firebase-analytics:9.4.0] E:\Papercrunch\M_PaperCrunch_Android\app\build\intermediates\exploded-aar\com.google.firebase\firebase-analytics\9.4.0\AndroidManifest.xml:32:19-75
service#com.google.android.gms.measurement.AppMeasurementService
ADDED from [com.google.firebase:firebase-analytics:9.4.0] E:\Papercrunch\M_PaperCrunch_Android\app\build\intermediates\exploded-aar\com.google.firebase\firebase-analytics\9.4.0\AndroidManifest.xml:36:7-39:37
MERGED from [com.google.firebase:firebase-analytics-impl:9.4.0] E:\Papercrunch\M_PaperCrunch_Android\app\build\intermediates\exploded-aar\com.google.firebase\firebase-analytics-impl\9.4.0\AndroidManifest.xml:36:7-39:37
	android:enabled
		ADDED from [com.google.firebase:firebase-analytics:9.4.0] E:\Papercrunch\M_PaperCrunch_Android\app\build\intermediates\exploded-aar\com.google.firebase\firebase-analytics\9.4.0\AndroidManifest.xml:38:11-33
	android:exported
		ADDED from [com.google.firebase:firebase-analytics:9.4.0] E:\Papercrunch\M_PaperCrunch_Android\app\build\intermediates\exploded-aar\com.google.firebase\firebase-analytics\9.4.0\AndroidManifest.xml:39:11-35
	android:name
		ADDED from [com.google.firebase:firebase-analytics:9.4.0] E:\Papercrunch\M_PaperCrunch_Android\app\build\intermediates\exploded-aar\com.google.firebase\firebase-analytics\9.4.0\AndroidManifest.xml:37:11-82
service#com.google.firebase.messaging.FirebaseMessagingService
ADDED from [com.google.firebase:firebase-messaging:9.4.0] E:\Papercrunch\M_PaperCrunch_Android\app\build\intermediates\exploded-aar\com.google.firebase\firebase-messaging\9.4.0\AndroidManifest.xml:24:9-30:19
	android:exported
		ADDED from [com.google.firebase:firebase-messaging:9.4.0] E:\Papercrunch\M_PaperCrunch_Android\app\build\intermediates\exploded-aar\com.google.firebase\firebase-messaging\9.4.0\AndroidManifest.xml:26:13-36
	android:name
		ADDED from [com.google.firebase:firebase-messaging:9.4.0] E:\Papercrunch\M_PaperCrunch_Android\app\build\intermediates\exploded-aar\com.google.firebase\firebase-messaging\9.4.0\AndroidManifest.xml:25:13-82
uses-permission#com.google.android.c2dm.permission.RECEIVE
ADDED from [com.google.firebase:firebase-iid:9.4.0] E:\Papercrunch\M_PaperCrunch_Android\app\build\intermediates\exploded-aar\com.google.firebase\firebase-iid\9.4.0\AndroidManifest.xml:23:5-82
	android:name
		ADDED from [com.google.firebase:firebase-iid:9.4.0] E:\Papercrunch\M_PaperCrunch_Android\app\build\intermediates\exploded-aar\com.google.firebase\firebase-iid\9.4.0\AndroidManifest.xml:23:22-79
permission#${applicationId}.permission.C2D_MESSAGE
ADDED from [com.google.firebase:firebase-iid:9.4.0] E:\Papercrunch\M_PaperCrunch_Android\app\build\intermediates\exploded-aar\com.google.firebase\firebase-iid\9.4.0\AndroidManifest.xml:25:5-26:47
	android:protectionLevel
		ADDED from [com.google.firebase:firebase-iid:9.4.0] E:\Papercrunch\M_PaperCrunch_Android\app\build\intermediates\exploded-aar\com.google.firebase\firebase-iid\9.4.0\AndroidManifest.xml:26:9-44
	android:name
		ADDED from [com.google.firebase:firebase-iid:9.4.0] E:\Papercrunch\M_PaperCrunch_Android\app\build\intermediates\exploded-aar\com.google.firebase\firebase-iid\9.4.0\AndroidManifest.xml:25:17-71
uses-permission#${applicationId}.permission.C2D_MESSAGE
ADDED from [com.google.firebase:firebase-iid:9.4.0] E:\Papercrunch\M_PaperCrunch_Android\app\build\intermediates\exploded-aar\com.google.firebase\firebase-iid\9.4.0\AndroidManifest.xml:28:5-79
	android:name
		ADDED from [com.google.firebase:firebase-iid:9.4.0] E:\Papercrunch\M_PaperCrunch_Android\app\build\intermediates\exploded-aar\com.google.firebase\firebase-iid\9.4.0\AndroidManifest.xml:28:22-76
receiver#com.google.firebase.iid.FirebaseInstanceIdReceiver
ADDED from [com.google.firebase:firebase-iid:9.4.0] E:\Papercrunch\M_PaperCrunch_Android\app\build\intermediates\exploded-aar\com.google.firebase\firebase-iid\9.4.0\AndroidManifest.xml:32:9-41:20
	android:exported
		ADDED from [com.google.firebase:firebase-iid:9.4.0] E:\Papercrunch\M_PaperCrunch_Android\app\build\intermediates\exploded-aar\com.google.firebase\firebase-iid\9.4.0\AndroidManifest.xml:34:13-36
	android:permission
		ADDED from [com.google.firebase:firebase-iid:9.4.0] E:\Papercrunch\M_PaperCrunch_Android\app\build\intermediates\exploded-aar\com.google.firebase\firebase-iid\9.4.0\AndroidManifest.xml:35:13-73
	android:name
		ADDED from [com.google.firebase:firebase-iid:9.4.0] E:\Papercrunch\M_PaperCrunch_Android\app\build\intermediates\exploded-aar\com.google.firebase\firebase-iid\9.4.0\AndroidManifest.xml:33:13-78
intent-filter#${applicationId}+com.google.android.c2dm.intent.RECEIVE+com.google.android.c2dm.intent.REGISTRATION
ADDED from [com.google.firebase:firebase-iid:9.4.0] E:\Papercrunch\M_PaperCrunch_Android\app\build\intermediates\exploded-aar\com.google.firebase\firebase-iid\9.4.0\AndroidManifest.xml:36:13-40:29
action#com.google.android.c2dm.intent.RECEIVE
ADDED from [com.google.firebase:firebase-iid:9.4.0] E:\Papercrunch\M_PaperCrunch_Android\app\build\intermediates\exploded-aar\com.google.firebase\firebase-iid\9.4.0\AndroidManifest.xml:37:17-81
	android:name
		ADDED from [com.google.firebase:firebase-iid:9.4.0] E:\Papercrunch\M_PaperCrunch_Android\app\build\intermediates\exploded-aar\com.google.firebase\firebase-iid\9.4.0\AndroidManifest.xml:37:25-78
action#com.google.android.c2dm.intent.REGISTRATION
ADDED from [com.google.firebase:firebase-iid:9.4.0] E:\Papercrunch\M_PaperCrunch_Android\app\build\intermediates\exploded-aar\com.google.firebase\firebase-iid\9.4.0\AndroidManifest.xml:38:17-86
	android:name
		ADDED from [com.google.firebase:firebase-iid:9.4.0] E:\Papercrunch\M_PaperCrunch_Android\app\build\intermediates\exploded-aar\com.google.firebase\firebase-iid\9.4.0\AndroidManifest.xml:38:25-83
category#${applicationId}
ADDED from [com.google.firebase:firebase-iid:9.4.0] E:\Papercrunch\M_PaperCrunch_Android\app\build\intermediates\exploded-aar\com.google.firebase\firebase-iid\9.4.0\AndroidManifest.xml:39:17-61
	android:name
		ADDED from [com.google.firebase:firebase-iid:9.4.0] E:\Papercrunch\M_PaperCrunch_Android\app\build\intermediates\exploded-aar\com.google.firebase\firebase-iid\9.4.0\AndroidManifest.xml:39:27-58
receiver#com.google.firebase.iid.FirebaseInstanceIdInternalReceiver
ADDED from [com.google.firebase:firebase-iid:9.4.0] E:\Papercrunch\M_PaperCrunch_Android\app\build\intermediates\exploded-aar\com.google.firebase\firebase-iid\9.4.0\AndroidManifest.xml:45:9-47:40
	android:exported
		ADDED from [com.google.firebase:firebase-iid:9.4.0] E:\Papercrunch\M_PaperCrunch_Android\app\build\intermediates\exploded-aar\com.google.firebase\firebase-iid\9.4.0\AndroidManifest.xml:47:13-37
	android:name
		ADDED from [com.google.firebase:firebase-iid:9.4.0] E:\Papercrunch\M_PaperCrunch_Android\app\build\intermediates\exploded-aar\com.google.firebase\firebase-iid\9.4.0\AndroidManifest.xml:46:13-86
service#com.google.firebase.iid.FirebaseInstanceIdService
ADDED from [com.google.firebase:firebase-iid:9.4.0] E:\Papercrunch\M_PaperCrunch_Android\app\build\intermediates\exploded-aar\com.google.firebase\firebase-iid\9.4.0\AndroidManifest.xml:51:9-57:19
	android:exported
		ADDED from [com.google.firebase:firebase-iid:9.4.0] E:\Papercrunch\M_PaperCrunch_Android\app\build\intermediates\exploded-aar\com.google.firebase\firebase-iid\9.4.0\AndroidManifest.xml:53:13-36
	android:name
		ADDED from [com.google.firebase:firebase-iid:9.4.0] E:\Papercrunch\M_PaperCrunch_Android\app\build\intermediates\exploded-aar\com.google.firebase\firebase-iid\9.4.0\AndroidManifest.xml:52:13-77
provider#com.google.firebase.provider.FirebaseInitProvider
ADDED from [com.google.firebase:firebase-common:9.4.0] E:\Papercrunch\M_PaperCrunch_Android\app\build\intermediates\exploded-aar\com.google.firebase\firebase-common\9.4.0\AndroidManifest.xml:7:9-11:39
	android:authorities
		ADDED from [com.google.firebase:firebase-common:9.4.0] E:\Papercrunch\M_PaperCrunch_Android\app\build\intermediates\exploded-aar\com.google.firebase\firebase-common\9.4.0\AndroidManifest.xml:8:13-72
	android:exported
		ADDED from [com.google.firebase:firebase-common:9.4.0] E:\Papercrunch\M_PaperCrunch_Android\app\build\intermediates\exploded-aar\com.google.firebase\firebase-common\9.4.0\AndroidManifest.xml:10:13-37
	android:initOrder
		ADDED from [com.google.firebase:firebase-common:9.4.0] E:\Papercrunch\M_PaperCrunch_Android\app\build\intermediates\exploded-aar\com.google.firebase\firebase-common\9.4.0\AndroidManifest.xml:11:13-36
	android:name
		ADDED from [com.google.firebase:firebase-common:9.4.0] E:\Papercrunch\M_PaperCrunch_Android\app\build\intermediates\exploded-aar\com.google.firebase\firebase-common\9.4.0\AndroidManifest.xml:9:13-58
activity#com.google.android.gms.auth.api.signin.internal.SignInHubActivity
ADDED from [com.google.android.gms:play-services-auth:9.4.0] E:\Papercrunch\M_PaperCrunch_Android\app\build\intermediates\exploded-aar\com.google.android.gms\play-services-auth\9.4.0\AndroidManifest.xml:21:9-24:46
	android:excludeFromRecents
		ADDED from [com.google.android.gms:play-services-auth:9.4.0] E:\Papercrunch\M_PaperCrunch_Android\app\build\intermediates\exploded-aar\com.google.android.gms\play-services-auth\9.4.0\AndroidManifest.xml:23:19-52
	android:exported
		ADDED from [com.google.android.gms:play-services-auth:9.4.0] E:\Papercrunch\M_PaperCrunch_Android\app\build\intermediates\exploded-aar\com.google.android.gms\play-services-auth\9.4.0\AndroidManifest.xml:24:19-43
	android:theme
		ADDED from [com.google.android.gms:play-services-auth:9.4.0] E:\Papercrunch\M_PaperCrunch_Android\app\build\intermediates\exploded-aar\com.google.android.gms\play-services-auth\9.4.0\AndroidManifest.xml:22:19-78
	android:name
		ADDED from [com.google.android.gms:play-services-auth:9.4.0] E:\Papercrunch\M_PaperCrunch_Android\app\build\intermediates\exploded-aar\com.google.android.gms\play-services-auth\9.4.0\AndroidManifest.xml:21:19-68
service#com.google.android.gms.auth.api.signin.RevocationBoundService
ADDED from [com.google.android.gms:play-services-auth:9.4.0] E:\Papercrunch\M_PaperCrunch_Android\app\build\intermediates\exploded-aar\com.google.android.gms\play-services-auth\9.4.0\AndroidManifest.xml:28:9-31:110
	android:exported
		ADDED from [com.google.android.gms:play-services-auth:9.4.0] E:\Papercrunch\M_PaperCrunch_Android\app\build\intermediates\exploded-aar\com.google.android.gms\play-services-auth\9.4.0\AndroidManifest.xml:30:13-36
	android:permission
		ADDED from [com.google.android.gms:play-services-auth:9.4.0] E:\Papercrunch\M_PaperCrunch_Android\app\build\intermediates\exploded-aar\com.google.android.gms\play-services-auth\9.4.0\AndroidManifest.xml:31:13-107
	android:name
		ADDED from [com.google.android.gms:play-services-auth:9.4.0] E:\Papercrunch\M_PaperCrunch_Android\app\build\intermediates\exploded-aar\com.google.android.gms\play-services-auth\9.4.0\AndroidManifest.xml:29:13-58
activity#com.google.android.gms.common.api.GoogleApiActivity
ADDED from [com.google.android.gms:play-services-base:9.4.0] E:\Papercrunch\M_PaperCrunch_Android\app\build\intermediates\exploded-aar\com.google.android.gms\play-services-base\9.4.0\AndroidManifest.xml:20:9-22:45
	android:exported
		ADDED from [com.google.android.gms:play-services-base:9.4.0] E:\Papercrunch\M_PaperCrunch_Android\app\build\intermediates\exploded-aar\com.google.android.gms\play-services-base\9.4.0\AndroidManifest.xml:22:19-43
	android:theme
		ADDED from [com.google.android.gms:play-services-base:9.4.0] E:\Papercrunch\M_PaperCrunch_Android\app\build\intermediates\exploded-aar\com.google.android.gms\play-services-base\9.4.0\AndroidManifest.xml:21:19-78
	android:name
		ADDED from [com.google.android.gms:play-services-base:9.4.0] E:\Papercrunch\M_PaperCrunch_Android\app\build\intermediates\exploded-aar\com.google.android.gms\play-services-base\9.4.0\AndroidManifest.xml:20:19-85
meta-data#com.google.android.gms.version
ADDED from [com.google.android.gms:play-services-basement:9.4.0] E:\Papercrunch\M_PaperCrunch_Android\app\build\intermediates\exploded-aar\com.google.android.gms\play-services-basement\9.4.0\AndroidManifest.xml:21:9-23:69
	android:value
		ADDED from [com.google.android.gms:play-services-basement:9.4.0] E:\Papercrunch\M_PaperCrunch_Android\app\build\intermediates\exploded-aar\com.google.android.gms\play-services-basement\9.4.0\AndroidManifest.xml:23:13-66
	android:name
		ADDED from [com.google.android.gms:play-services-basement:9.4.0] E:\Papercrunch\M_PaperCrunch_Android\app\build\intermediates\exploded-aar\com.google.android.gms\play-services-basement\9.4.0\AndroidManifest.xml:22:13-58
